{
	"info": {
		"_postman_id": "0a10a26c-93de-48d4-9fa6-455b4dcca6aa",
		"name": "b270-booking",
		"schema": "https://schema.getpostman.com/json/collection/v2.1.0/collection.json",
		"_exporter_id": "23938494"
	},
	"item": [
		{
			"name": "Check Email",
			"request": {
				"method": "POST",
				"header": [],
				"body": {
					"mode": "raw",
					"raw": "{\r\n    \"email\": \"john@mail.com\"\r\n}",
					"options": {
						"raw": {
							"language": "json"
						}
					}
				},
				"url": {
					"raw": "http://localhost:4000/users/checkEmail",
					"protocol": "http",
					"host": [
						"localhost"
					],
					"port": "4000",
					"path": [
						"users",
						"checkEmail"
					]
				}
			},
			"response": []
		},
		{
			"name": "User registration",
			"request": {
				"method": "POST",
				"header": [],
				"body": {
					"mode": "raw",
					"raw": "{\r\n    \"firstName\": \"admin\",\r\n    \"lastName\": \"admin\",\r\n    \"email\": \"admin@mail.com\",\r\n    \"password\": \"admin1234\",\r\n    \"mobileNo\": \"09123456789\"\r\n}",
					"options": {
						"raw": {
							"language": "json"
						}
					}
				},
				"url": {
					"raw": "http://localhost:4000/users/register",
					"protocol": "http",
					"host": [
						"localhost"
					],
					"port": "4000",
					"path": [
						"users",
						"register"
					]
				}
			},
			"response": []
		},
		{
			"name": "User login",
			"request": {
				"method": "POST",
				"header": [],
				"body": {
					"mode": "raw",
					"raw": "{\r\n    \"email\": \"admin@mail.com\",\r\n    \"password\": \"admin1234\"\r\n}",
					"options": {
						"raw": {
							"language": "json"
						}
					}
				},
				"url": {
					"raw": "http://localhost:4000/users/login",
					"protocol": "http",
					"host": [
						"localhost"
					],
					"port": "4000",
					"path": [
						"users",
						"login"
					]
				}
			},
			"response": []
		},
		{
			"name": "Get user details",
			"protocolProfileBehavior": {
				"disableBodyPruning": true
			},
			"request": {
				"auth": {
					"type": "bearer",
					"bearer": [
						{
							"key": "token",
							"value": "eyJhbGciOiJIUzI1NiIsInR5cCI6IkpXVCJ9.eyJpZCI6IjY0NTM3ZWY2YmQxZGVlNzU3OTMxMDdhNyIsImVtYWlsIjoiam9obkBtYWlsLmNvbSIsImlzQWRtaW4iOmZhbHNlLCJpYXQiOjE2ODMyODcxNTd9.n7vL6O7Kh-Cx_DFVjm-_VS7j34yV9BgBtpMW3mI6sl0",
							"type": "string"
						}
					]
				},
				"method": "GET",
				"header": [],
				"body": {
					"mode": "raw",
					"raw": "",
					"options": {
						"raw": {
							"language": "json"
						}
					}
				},
				"url": {
					"raw": "http://localhost:4000/users/details",
					"protocol": "http",
					"host": [
						"localhost"
					],
					"port": "4000",
					"path": [
						"users",
						"details"
					]
				}
			},
			"response": []
		},
		{
			"name": "Add a course",
			"request": {
				"auth": {
					"type": "bearer",
					"bearer": [
						{
							"key": "token",
							"value": "eyJhbGciOiJIUzI1NiIsInR5cCI6IkpXVCJ9.eyJpZCI6IjY0NTRmNGIyMGY2MzYwZTRhODEwMGQ0YyIsImVtYWlsIjoiYWRtaW5AbWFpbC5jb20iLCJpc0FkbWluIjp0cnVlLCJpYXQiOjE2ODMyOTQwMTR9.88e8B7JQDkoS4CjaSRcNBbVtzFM2Z7eLPO1LE1KElIs",
							"type": "string"
						}
					]
				},
				"method": "POST",
				"header": [],
				"body": {
					"mode": "raw",
					"raw": "{\r\n    \"name\": \"HTML\",\r\n    \"description\": \"Learn the basics of web development\",\r\n    \"price\": 1000,\r\n    \"slots\": 20\r\n}",
					"options": {
						"raw": {
							"language": "json"
						}
					}
				},
				"url": {
					"raw": "http://localhost:4000/courses",
					"protocol": "http",
					"host": [
						"localhost"
					],
					"port": "4000",
					"path": [
						"courses"
					]
				}
			},
			"response": []
		}
	]
}